{
    "steps": 45000,
    "dt": 0.001,
    "bodies": [
        {
            "name": "Earth",
            "type": "point_mass",
            "transform": {
                "position": {
                    "x": -5,
                    "y": 0,
                    "z": 0
                },
                "velocity": {
                    "x": 0,
                    "y": 5,
                    "z": 0
                },
                "rotation": {
                    "x": 0,
                    "y": 0,
                    "z": 0
                },
                "rotation_velocity": {
                    "x": 0,
                    "y": 0,
                    "z": 0
                },
                "scale": {
                    "local": 1,
                    "x": 1,
                    "y": 1,
                    "z": 1
                }
            },
            "physics": {
                "mass": 5e12
            }
        },
        {
            "name": "Satellite",
            "type": "point_mass",
            "transform": {
                "position": {
                    "x": 2.5,
                    "y": 4.33,
                    "z": 0
                },
                "velocity": {
                    "x": 4.32,
                    "y": -2.5,
                    "z": 0
                },
                "rotation": {
                    "x": 0,
                    "y": 0,
                    "z": 0
                },
                "rotation_velocity": {
                    "x": 0,
                    "y": 0,
                    "z": 0
                },
                "scale": {
                    "local": 1,
                    "x": 1,
                    "y": 1,
                    "z": 1
                }
            },
            "physics": {
                "mass": 5e12
            }
        },
        {
            "name": "Satellite2",
            "type": "point_mass",
            "transform": {
                "position": {
                    "x": 2.5,
                    "y": -4.33,
                    "z": 0
                },
                "velocity": {
                    "x": -4.32,
                    "y": -2.5,
                    "z": 0
                },
                "rotation": {
                    "x": 0,
                    "y": 0,
                    "z": 0
                },
                "rotation_velocity": {
                    "x": 0,
                    "y": 0,
                    "z": 0
                },
                "scale": {
                    "local": 1,
                    "x": 1,
                    "y": 1,
                    "z": 1
                }
            },
            "physics": {
                "mass": 5e12
            }
        }
    ]
}